…
``` r
corp_tf %>%
         filter(Author == "ME") %>%
         filter(Word == "education" | Word == "rank" | Word == "conduct") %>%
         group_by(Word, Text) 
```

    ## # A tibble: 48 x 4
    ## # Groups:   Word, Text [48]
    ##              Text Author    Word        Value
    ##             <chr>  <chr>   <chr>        <dbl>
    ##  1 ME_1800_CR.txt     ME conduct 1.973869e-06
    ##  2  ME_1801_B.txt     ME conduct 2.363105e-05
    ##  3 ME_1804_PT.txt     ME conduct 1.002845e-05
    ##  4 ME_1805_MG.txt     ME conduct 3.119718e-05
    ##  5  ME_1806_E.txt     ME conduct 2.200556e-05
    ##  6  ME_1806_L.txt     ME conduct 2.352751e-05
    ##  7  ME_1809_A.txt     ME conduct 2.080481e-05
    ##  8  ME_1809_D.txt     ME conduct 0.000000e+00
    ##  9  ME_1809_M.txt     ME conduct 1.678134e-05
    ## 10 ME_1809_MF.txt     ME conduct 1.464425e-05
    ## # ... with 38 more rows
…
